{
    "id": "ch_1JEQebLu8QyecRrVw76dwthp",
    "object": "charge",
    "amount": 100,
    "amount_captured": 0,
    "amount_refunded": 0,
    "application": null,
    "application_fee": null,
    "application_fee_amount": null,
    "balance_transaction": "txn_1JERiZLu8QyecRrVJuU4oPNJ",
    "billing_details": {
      "address": {
        "city": null,
        "country": null,
        "line1": null,
        "line2": null,
        "postal_code": null,
        "state": null
      },
      "email": null,
      "name": null,
      "phone": null
    },
    "calculated_statement_descriptor": null,
    "captured": false,
    "created": 1626578817,
    "currency": "usd",
    "customer": null,
    "description": "My First Test Charge (created for API docs)",
    "disputed": false,
    "failure_code": null,
    "failure_message": null,
    "fraud_details": {},
    "invoice": null,
    "livemode": false,
    "metadata": {
      "order_id": "6735"
    },
    "on_behalf_of": null,
    "order": null,
    "outcome": null,
    "paid": true,
    "payment_intent": null,
    "payment_method": "card_1JEQebLu8QyecRrVYF9bzI6I",
    "payment_method_details": {
      "card": {
        "brand": "visa",
        "checks": {
          "address_line1_check": null,
          "address_postal_code_check": null,
          "cvc_check": "pass"
        },
        "country": "US",
        "exp_month": 8,
        "exp_year": 2022,
        "fingerprint": "WatLZdBk7PUbwX0S",
        "funding": "credit",
        "installments": null,
        "last4": "4242",
        "network": "visa",
        "three_d_secure": null,
        "wallet": null
      },
      "type": "card"
    },
    "receipt_email": null,
    "receipt_number": null,
    "receipt_url": "https://pay.stripe.com/receipts/acct_1J0S5lLu8QyecRrV/ch_1JEQebLu8QyecRrVw76dwthp/rcpt_JsB0TNPwdtTS5C8ibDbQ2ioN0WWZoyo",
    "refunded": false,
    "refunds": {
      "object": "list",
      "data": [],
      "has_more": false,
      "url": "/v1/charges/ch_1JEQebLu8QyecRrVw76dwthp/refunds"
    },
    "review": null,
    "shipping": null,
    "source_transfer": null,
    "statement_descriptor": null,
    "statement_descriptor_suffix": null,
    "status": "succeeded",
    "transfer_data": null,
    "transfer_group": null
  }