{
    "id": "cus_JsC6PXU2VadEVM",
    "object": "customer",
    "address": null,
    "balance": 0,
    "created": 1626582907,
    "currency": "usd",
    "default_source": null,
    "delinquent": false,
    "description": "My First Test Customer (created for API docs)",
    "discount": null,
    "email": null,
    "invoice_prefix": "C05E15E",
    "invoice_settings": {
      "custom_fields": null,
      "default_payment_method": null,
      "footer": null
    },
    "livemode": false,
    "metadata": {},
    "name": null,
    "next_invoice_sequence": 1,
    "phone": null,
    "preferred_locales": [],
    "shipping": null,
    "tax_exempt": "none"
  }