{
    "id": "txn_1JERiZLu8QyecRrVJuU4oPNJ",
    "object": "balance_transaction",
    "amount": 100,
    "available_on": 1626582907,
    "created": 1626582907,
    "currency": "usd",
    "description": "My First Test Charge (created for API docs)",
    "exchange_rate": null,
    "fee": 0,
    "fee_details": [],
    "net": 100,
    "reporting_category": "charge",
    "source": "ch_1JEQebLu8QyecRrVw76dwthp",
    "status": "available",
    "type": "charge"
  }